state,city,product_ct,product
IL,Chicago,10,bikes
IL,Chicago,12,watches
IL,Chicago,18,pants
WI,Madison,5,pants
WI,Madison,8,watches
WI,Madison,12,bikes
CO,Boulder,4,bikes
MT,Bozeman,4,bikes
MT,Bozeman,6,pants
GA,Atlanta,1,watches
GA,Atlanta,2,watches
GA,Augusta,37,golf balls
GA,Augusta,7,pants
GA,Augusta,2
